<svg width="40" height="40" viewBox="0 0 40 40" fill="none" xmlns="http://www.w3.org/2000/svg">
<path d="M27.7738 14.4681H12.6518C12.1398 14.4681 11.7247 14.8831 11.7247 15.3952C11.7247 15.9072 12.1398 16.3222 12.6518 16.3222H27.7738C28.2858 16.3222 28.7008 15.9072 28.7008 15.3952C28.7008 14.8831 28.2858 14.4681 27.7738 14.4681Z" fill="#0A2341"/>
<path d="M25.7407 17.7678H14.6849C14.1729 17.7678 13.7578 18.1829 13.7578 18.6949C13.7578 19.2069 14.1729 19.622 14.6849 19.622H25.7407C26.2527 19.622 26.6678 19.2069 26.6678 18.6949C26.6678 18.1829 26.2527 17.7678 25.7407 17.7678Z" fill="#0A2341"/>
<path d="M23.7077 21.0673H16.718C16.206 21.0673 15.7909 21.4824 15.7909 21.9944C15.7909 22.5064 16.206 22.9214 16.718 22.9214H23.7077C24.2197 22.9214 24.6347 22.5064 24.6347 21.9944C24.6347 21.4824 24.2197 21.0673 23.7077 21.0673Z" fill="#0A2341"/>
<path d="M21.6746 24.367H18.7511C18.239 24.367 17.824 24.7821 17.824 25.2941C17.824 25.8061 18.239 26.2212 18.7511 26.2212H21.6746C22.1866 26.2212 22.6017 25.8061 22.6017 25.2941C22.6017 24.7821 22.1866 24.367 21.6746 24.367Z" fill="#0A2341"/>
</svg>
