<svg width="125" height="114" viewBox="0 0 125 114" fill="none" xmlns="http://www.w3.org/2000/svg">
<g clip-path="url(#clip0)">
<path d="M40.4413 8.75112C46.6454 8.98763 54.6877 9.22415 62.9597 9.22415C71.2318 9.22415 79.2741 8.98763 85.4781 8.75112C88.4652 8.75112 90.9928 8.5146 92.831 8.5146C94.6693 8.5146 95.5884 8.27809 95.5884 8.27809C95.5884 8.27809 94.6693 8.27809 92.831 8.04158C90.9928 8.04158 88.4652 7.80506 85.4781 7.80506C79.2741 7.56855 71.2318 7.33203 62.9597 7.33203C54.6877 7.33203 46.6454 7.56855 40.4413 7.80506C37.4542 7.80506 34.9266 8.04158 33.0884 8.04158C31.2502 8.04158 30.3311 8.27809 30.3311 8.27809C30.3311 8.27809 31.2502 8.27809 33.0884 8.5146C34.9266 8.5146 37.4542 8.5146 40.4413 8.75112Z" fill="#00A0AF"/>
<path d="M85.0189 105.013C83.4104 105.013 81.802 105.013 79.9637 104.776C78.1255 104.776 76.2873 104.776 74.2193 104.54C72.1512 104.54 70.313 104.54 68.245 104.54C66.177 104.54 64.109 104.54 62.041 104.54C59.9729 104.54 57.9049 104.54 55.8369 104.54C53.7689 104.54 51.7009 104.54 49.8626 104.54C47.7946 104.54 45.9564 104.54 44.1182 104.776C42.2799 104.776 40.6715 104.776 39.063 105.013C32.859 105.249 28.4932 105.486 28.4932 105.486C28.4932 105.486 32.6292 105.722 39.063 105.959C40.6715 105.959 42.2799 105.959 44.1182 106.195C45.9564 106.195 47.7946 106.195 49.8626 106.432C51.9307 106.432 53.7689 106.432 55.8369 106.432C57.9049 106.432 59.9729 106.432 62.041 106.432C64.109 106.432 66.177 106.432 68.245 106.432C70.313 106.432 72.381 106.432 74.2193 106.432C76.2873 106.432 78.1255 106.432 79.9637 106.195C81.802 106.195 83.4104 106.195 85.0189 105.959C88.2358 105.959 90.7634 105.722 92.6016 105.722C94.4398 105.722 95.5887 105.486 95.5887 105.486C95.5887 105.486 94.4398 105.486 92.6016 105.249C90.9932 105.249 88.2358 105.013 85.0189 105.013Z" fill="#00A0AF"/>
<path d="M68.9342 112.817C68.015 112.817 66.8662 112.817 65.7173 112.817C64.5684 112.817 63.6492 112.817 62.5003 112.817C61.3514 112.817 60.4323 112.817 59.2834 112.817C58.1345 112.817 57.2154 112.817 56.0665 112.817C53.9985 112.817 52.1603 112.817 50.5518 113.054C47.3349 113.29 45.0371 113.527 45.0371 113.527C45.0371 113.527 47.1051 113.763 50.5518 114C52.1603 114 53.9985 114.236 56.0665 114.236C56.9856 114.236 58.1345 114.236 59.2834 114.236C60.4323 114.236 61.3514 114.236 62.5003 114.236C63.6492 114.236 64.5684 114.236 65.7173 114.236C66.8662 114.236 67.7853 114.236 68.9342 114.236C71.0022 114.236 72.8404 114.236 74.4489 114C77.6658 113.763 79.9636 113.527 79.9636 113.527C79.9636 113.527 77.8956 113.29 74.4489 113.054C72.8404 112.817 71.0022 112.817 68.9342 112.817Z" fill="#00A0AF"/>
<path d="M68.4742 0C67.5551 0 66.4062 0 65.2573 0C64.1084 0 63.1893 0 62.0404 0C60.8915 0 59.9724 0 58.8235 0C57.6746 0 56.7555 0 55.6066 0C53.5385 0 51.7003 0 50.0919 0.236515C46.8749 0.473029 44.5771 0.709544 44.5771 0.709544C44.5771 0.709544 46.6452 0.946058 50.0919 1.18257C51.7003 1.18257 53.5385 1.41909 55.6066 1.41909C56.5257 1.41909 57.6746 1.41909 58.8235 1.41909C59.9724 1.41909 60.8915 1.41909 62.0404 1.41909C63.1893 1.41909 64.1084 1.41909 65.2573 1.41909C66.4062 1.41909 67.3253 1.41909 68.4742 1.41909C70.5422 1.41909 72.3805 1.41909 73.9889 1.18257C77.2058 0.946058 79.5036 0.709544 79.5036 0.709544C79.5036 0.709544 77.4356 0.473029 73.9889 0.236515C72.3805 0.236515 70.5422 0.236515 68.4742 0Z" fill="#00A0AF"/>
<path d="M87.5462 17.5023C90.0738 17.5023 92.3716 17.5023 94.4396 17.2658C98.8054 17.0293 102.252 17.0293 104.78 16.7927C107.307 16.5562 108.686 16.5562 108.686 16.5562C108.686 16.5562 107.307 16.5562 104.78 16.3197C102.482 16.5562 98.8054 16.3197 94.4396 16.0832C92.3716 16.0832 89.844 15.8467 87.5462 15.8467C85.708 15.8467 83.8698 15.8467 81.8018 15.8467C82.9507 16.3197 83.8698 17.0293 84.7889 17.7388C85.708 17.5023 86.6271 17.5023 87.5462 17.5023Z" fill="#00A0AF"/>
<path d="M38.3734 16.0831C35.8458 16.0831 33.548 16.3197 31.48 16.3197C27.1142 16.3197 23.4377 16.5562 20.9102 16.5562C18.3826 16.7927 17.0039 16.7927 17.0039 16.7927C17.0039 16.7927 18.3826 16.7927 20.9102 17.0292C23.4377 17.2657 27.1142 17.2657 31.2502 17.5022C33.3182 17.5022 35.8458 17.7387 38.1436 17.7387C38.3734 17.7387 38.6032 17.7387 38.8329 17.7387C39.7521 17.0292 40.6712 16.5562 41.8201 16.0831C40.6712 15.8466 39.5223 15.8466 38.3734 16.0831Z" fill="#00A0AF"/>
<path d="M97.8863 26.4896C102.712 26.2531 106.618 26.0166 109.605 26.0166C112.362 25.78 113.971 25.78 113.971 25.78C113.971 25.78 112.362 25.5435 109.605 25.5435C106.848 25.307 102.712 25.0705 97.8863 25.0705C96.5076 25.0705 95.129 25.0705 93.5205 24.834C94.2098 25.5435 94.6694 26.0166 95.129 26.7261C96.2779 26.7261 97.197 26.7261 97.8863 26.4896Z" fill="#00A0AF"/>
<path d="M27.5738 24.8342C22.7484 25.0707 18.8422 25.3072 15.8551 25.3072C13.0977 25.5437 11.4893 25.7802 11.4893 25.7802C11.4893 25.7802 13.0977 26.0167 15.8551 26.0167C18.6124 26.2533 22.7484 26.4898 27.5738 26.4898C27.8036 26.4898 28.2632 26.4898 28.4929 26.4898C28.9525 25.7802 29.6418 25.3072 30.1014 24.5977C29.1823 24.8342 28.2632 24.8342 27.5738 24.8342Z" fill="#00A0AF"/>
<path d="M112.821 35.0042C115.809 34.7677 117.647 34.5312 117.647 34.5312C117.647 34.5312 116.038 34.2947 112.821 34.0582C109.834 33.8217 105.469 33.5851 100.413 33.3486H100.184C100.643 34.0582 101.103 34.7677 101.332 35.7138C105.928 35.4773 110.064 35.2407 112.821 35.0042Z" fill="#00A0AF"/>
<path d="M12.4081 34.2945C10.7996 34.2945 9.65074 34.531 8.9614 34.531C8.04228 34.531 7.8125 34.531 7.8125 34.531C7.8125 34.531 8.27206 34.531 8.9614 34.531C9.88051 34.531 11.0294 34.7675 12.4081 34.7675C14.9357 35.2406 18.3824 35.4771 22.5184 35.7136C22.9779 35.004 23.2077 34.2945 23.6673 33.585C19.0717 33.8215 15.1654 34.058 12.4081 34.2945Z" fill="#00A0AF"/>
<path d="M8.50172 43.0455C6.89327 43.0455 5.51459 43.282 4.59547 43.282C3.67636 43.282 3.2168 43.5185 3.2168 43.5185C3.2168 43.5185 3.67636 43.5185 4.59547 43.755C5.51459 43.755 6.66349 43.9915 8.27194 44.2281C11.0293 44.4646 14.7058 44.7011 19.0716 44.9376C19.3014 43.9915 19.5311 43.282 19.7609 42.3359C15.1653 42.3359 11.2591 42.809 8.50172 43.0455Z" fill="#00A0AF"/>
<path d="M117.418 43.9917C120.635 43.7552 122.473 43.5187 122.473 43.5187C122.473 43.5187 120.635 43.2822 117.418 43.0457C114.201 42.8092 109.605 42.3361 103.861 42.0996C103.861 42.0996 103.861 42.0996 103.631 42.0996C103.861 43.0457 104.09 43.9917 104.55 44.9378C109.835 44.7013 114.43 44.2282 117.418 43.9917Z" fill="#00A0AF"/>
<path d="M5.74489 51.7968C3.90665 52.0333 2.75775 52.0333 1.83864 52.2698C0.91952 52.2698 0.459961 52.5063 0.459961 52.5063C0.459961 52.5063 0.91952 52.5063 1.83864 52.7428C2.75775 52.7428 4.13643 52.9793 5.74489 53.2158C8.73202 53.4524 12.868 53.9254 17.9232 54.1619C17.9232 53.2158 17.9232 52.2698 18.153 51.3237C12.868 51.3237 8.73202 51.5602 5.74489 51.7968Z" fill="#00A0AF"/>
<path d="M118.796 52.979C122.243 52.7425 124.081 52.506 124.081 52.506C124.081 52.506 122.243 52.2695 118.796 52.033C115.579 51.7965 111.214 51.3234 105.929 51.0869C105.929 52.033 106.158 52.979 106.158 53.9251C111.214 53.4521 115.579 53.2155 118.796 52.979Z" fill="#00A0AF"/>
<path d="M119.715 61.7305C123.161 61.494 125 61.2575 125 61.2575C125 61.2575 122.932 61.021 119.715 60.7844C116.498 60.5479 111.673 60.0749 105.928 59.8384C105.928 60.7844 105.698 61.967 105.698 62.9131C111.443 62.44 116.268 61.967 119.715 61.7305Z" fill="#00A0AF"/>
<path d="M5.28493 60.7844C2.06801 61.021 0 61.2575 0 61.2575C0 61.2575 2.06801 61.494 5.28493 61.7305C8.50184 61.967 12.8676 62.44 18.1526 62.6766C17.9228 61.7305 17.9228 60.7844 17.9228 59.8384C12.6379 60.0749 8.50184 60.3114 5.28493 60.7844Z" fill="#00A0AF"/>
<path d="M8.04245 69.5354C4.82554 69.7719 2.9873 70.0084 2.9873 70.0084C2.9873 70.0084 4.82554 70.245 8.04245 70.4815C11.0296 70.718 15.1656 71.191 20.2208 71.4275C19.991 70.4815 19.5314 69.5354 19.3016 68.5894C14.7061 69.0624 10.7998 69.2989 8.04245 69.5354Z" fill="#00A0AF"/>
<path d="M116.038 70.4815C119.255 70.245 121.093 70.0084 121.093 70.0084C121.093 70.0084 119.255 69.7719 116.038 69.5354C113.051 69.2989 109.145 69.0624 104.32 68.5894C104.09 69.5354 103.86 70.4815 103.4 71.4275C108.685 71.191 113.051 70.9545 116.038 70.4815Z" fill="#00A0AF"/>
<path d="M101.562 80.1783C106.847 79.9417 111.443 79.7052 114.66 79.4687C116.268 79.4687 117.417 79.2322 118.336 79.2322C119.255 79.2322 119.715 79.2322 119.715 79.2322C119.715 79.2322 119.255 79.2322 118.336 79.2322C117.417 79.2322 116.268 78.9957 114.66 78.9957C111.443 78.7592 107.077 78.5226 101.562 78.2861C101.332 78.2861 101.103 78.2861 100.873 78.2861C100.413 78.9957 99.9537 79.9417 99.4941 80.6513C100.183 80.1782 100.873 80.1783 101.562 80.1783Z" fill="#00A0AF"/>
<path d="M22.5188 78.0497C17.2339 78.2862 12.6383 78.5227 9.42136 78.7592C7.8129 78.7592 6.664 78.9958 5.74489 78.9958C4.82577 78.9958 4.36621 78.9958 4.36621 78.9958C4.36621 78.9958 4.82577 78.9958 5.74489 78.9958C6.664 78.9958 7.8129 79.2323 9.42136 79.2323C12.6383 79.4688 17.0041 79.7053 22.5188 79.9418C22.9783 79.9418 23.6677 79.9418 24.357 79.9418C23.8975 79.2323 23.4379 78.5227 22.9783 77.5767C22.7486 78.0497 22.7486 78.0497 22.5188 78.0497Z" fill="#00A0AF"/>
<path d="M92.8311 88.9295C94.4395 88.9295 96.2777 88.9295 97.6564 88.693C102.482 88.4565 106.618 88.22 109.375 88.22C112.133 87.9835 113.741 87.9835 113.741 87.9835C113.741 87.9835 112.133 87.7469 109.375 87.7469C106.618 87.5104 102.482 87.2739 97.6564 87.2739C96.7373 87.2739 95.5884 87.2739 94.4395 87.2739C93.9799 87.747 93.5204 88.22 92.8311 88.9295Z" fill="#00A0AF"/>
<path d="M29.182 87.0376C28.2629 87.0376 27.114 87.0376 26.1949 87.0376C21.3695 87.2741 17.2335 87.5106 14.4762 87.5106C11.7188 87.7471 10.1104 87.7471 10.1104 87.7471C10.1104 87.7471 11.7188 87.9837 14.4762 87.9837C17.2335 88.2202 21.3695 88.4567 26.1949 88.4567C27.5736 88.4567 29.182 88.4567 30.7905 88.6932C30.3309 88.2202 29.8714 87.7471 29.182 87.0376Z" fill="#00A0AF"/>
<path d="M38.143 95.7881C35.8452 95.7881 33.5474 96.0246 31.4794 96.0246C27.3434 96.2611 23.8967 96.2611 21.3691 96.4976C18.8416 96.7341 17.4629 96.7341 17.4629 96.7341C17.4629 96.7341 18.8416 96.7341 21.3691 96.9707C23.8967 97.2072 27.3434 97.2072 31.4794 97.4437C33.5474 97.4437 35.8452 97.6802 38.143 97.6802C39.7515 97.6802 41.5897 97.6802 43.428 97.9167C42.0493 97.2072 40.9004 96.7341 39.7515 95.7881C39.0622 95.7881 38.6026 95.7881 38.143 95.7881Z" fill="#00A0AF"/>
<path d="M85.9376 97.6802C88.2354 97.6802 90.5331 97.4437 92.6012 97.4437C96.7372 97.2072 100.184 97.2072 102.711 96.9707C105.239 96.7341 106.618 96.7341 106.618 96.7341C106.618 96.7341 105.239 96.7341 102.711 96.4976C100.184 96.2611 96.7372 96.2611 92.6012 96.0246C90.5331 96.0246 88.2354 95.7881 85.9376 95.7881C85.478 95.7881 84.7887 95.7881 84.3291 95.7881C83.1802 96.4976 81.8015 97.2072 80.4229 97.9167C82.4909 97.6802 84.3291 97.6802 85.9376 97.6802Z" fill="#00A0AF"/>
</g>
<path d="M79.5 47L56.125 70.8333L45.5 60" stroke="#00A0AF" stroke-width="4" stroke-linecap="round" stroke-linejoin="round"/>
<defs>
<clipPath id="clip0">
<rect width="125" height="114" fill="white"/>
</clipPath>
</defs>
</svg>
