<svg width="99" height="90" viewBox="0 0 99 90" fill="none" xmlns="http://www.w3.org/2000/svg">
<g clip-path="url(#clip0)">
<path d="M32.0298 6.90878C36.9434 7.09551 43.3129 7.28223 49.8644 7.28223C56.4158 7.28223 62.7853 7.09551 67.6989 6.90878C70.0647 6.90878 72.0666 6.72206 73.5225 6.72206C74.9783 6.72206 75.7063 6.53534 75.7063 6.53534C75.7063 6.53534 74.9783 6.53534 73.5225 6.34862C72.0666 6.34862 70.0647 6.1619 67.6989 6.1619C62.7853 5.97517 56.4158 5.78845 49.8644 5.78845C43.3129 5.78845 36.9434 5.97517 32.0298 6.1619C29.664 6.1619 27.6622 6.34862 26.2063 6.34862C24.7504 6.34862 24.0225 6.53534 24.0225 6.53534C24.0225 6.53534 24.7504 6.53534 26.2063 6.72206C27.6622 6.72206 29.664 6.72206 32.0298 6.90878Z" fill="#00A0AF"/>
<path d="M67.3348 82.9047C66.0609 82.9047 64.787 82.9047 63.3311 82.718C61.8752 82.718 60.4193 82.718 58.7815 82.5312C57.1436 82.5312 55.6877 82.5312 54.0499 82.5312C52.412 82.5312 50.7741 82.5312 49.1363 82.5312C47.4984 82.5312 45.8605 82.5312 44.2227 82.5312C42.5848 82.5312 40.9469 82.5312 39.491 82.5312C37.8532 82.5312 36.3973 82.5312 34.9414 82.718C33.4855 82.718 32.2116 82.718 30.9377 82.9047C26.0241 83.0914 22.5664 83.2781 22.5664 83.2781C22.5664 83.2781 25.8421 83.4649 30.9377 83.6516C32.2116 83.6516 33.4855 83.6516 34.9414 83.8383C36.3973 83.8383 37.8532 83.8383 39.491 84.025C41.1289 84.025 42.5848 84.025 44.2227 84.025C45.8605 84.025 47.4984 84.025 49.1363 84.025C50.7741 84.025 52.412 84.025 54.0499 84.025C55.6877 84.025 57.3256 84.025 58.7815 84.025C60.4193 84.025 61.8752 84.025 63.3311 83.8383C64.787 83.8383 66.0609 83.8383 67.3348 83.6516C69.8826 83.6516 71.8844 83.4649 73.3403 83.4649C74.7962 83.4649 75.7061 83.2781 75.7061 83.2781C75.7061 83.2781 74.7962 83.2781 73.3403 83.0914C72.0664 83.0914 69.8826 82.9047 67.3348 82.9047Z" fill="#00A0AF"/>
<path d="M54.5954 89.0664C53.8675 89.0664 52.9575 89.0664 52.0476 89.0664C51.1377 89.0664 50.4098 89.0664 49.4998 89.0664C48.5899 89.0664 47.862 89.0664 46.952 89.0664C46.0421 89.0664 45.3142 89.0664 44.4042 89.0664C42.7664 89.0664 41.3105 89.0664 40.0366 89.2531C37.4888 89.4398 35.6689 89.6266 35.6689 89.6266C35.6689 89.6266 37.3068 89.8133 40.0366 90C41.3105 90 42.7664 90.1867 44.4042 90.1867C45.1322 90.1867 46.0421 90.1867 46.952 90.1867C47.862 90.1867 48.5899 90.1867 49.4998 90.1867C50.4098 90.1867 51.1377 90.1867 52.0476 90.1867C52.9575 90.1867 53.6855 90.1867 54.5954 90.1867C56.2333 90.1867 57.6892 90.1867 58.9631 90C61.5109 89.8133 63.3307 89.6266 63.3307 89.6266C63.3307 89.6266 61.6928 89.4398 58.9631 89.2531C57.6892 89.0664 56.2333 89.0664 54.5954 89.0664Z" fill="#00A0AF"/>
<path d="M54.2312 0C53.5032 0 52.5933 0 51.6834 0C50.7734 0 50.0455 0 49.1356 0C48.2256 0 47.4977 0 46.5878 0C45.6779 0 44.9499 0 44.04 0C42.4021 0 40.9462 0 39.6723 0.186722C37.1245 0.373444 35.3047 0.560166 35.3047 0.560166C35.3047 0.560166 36.9426 0.746888 39.6723 0.93361C40.9462 0.93361 42.4021 1.12033 44.04 1.12033C44.7679 1.12033 45.6779 1.12033 46.5878 1.12033C47.4977 1.12033 48.2256 1.12033 49.1356 1.12033C50.0455 1.12033 50.7734 1.12033 51.6834 1.12033C52.5933 1.12033 53.3212 1.12033 54.2312 1.12033C55.869 1.12033 57.3249 1.12033 58.5988 0.93361C61.1466 0.746888 62.9664 0.560166 62.9664 0.560166C62.9664 0.560166 61.3286 0.373444 58.5988 0.186722C57.3249 0.186722 55.869 0.186722 54.2312 0Z" fill="#00A0AF"/>
<path d="M69.3367 13.8174C71.3386 13.8174 73.1584 13.8174 74.7963 13.6307C78.254 13.444 80.9838 13.444 82.9856 13.2573C84.9875 13.0705 86.0794 13.0705 86.0794 13.0705C86.0794 13.0705 84.9875 13.0705 82.9856 12.8838C81.1658 13.0705 78.254 12.8838 74.7963 12.6971C73.1584 12.6971 71.1566 12.5104 69.3367 12.5104C67.8809 12.5104 66.425 12.5104 64.7871 12.5104C65.697 12.8838 66.425 13.444 67.1529 14.0042C67.8809 13.8174 68.6088 13.8174 69.3367 13.8174Z" fill="#00A0AF"/>
<path d="M30.3914 12.697C28.3896 12.697 26.5697 12.8838 24.9319 12.8838C21.4741 12.8838 18.5624 13.0705 16.5605 13.0705C14.5587 13.2572 13.4668 13.2572 13.4668 13.2572C13.4668 13.2572 14.5587 13.2572 16.5605 13.4439C18.5624 13.6307 21.4741 13.6307 24.7499 13.8174C26.3878 13.8174 28.3896 14.0041 30.2094 14.0041C30.3914 14.0041 30.5734 14.0041 30.7554 14.0041C31.4833 13.4439 32.2113 13.0705 33.1212 12.697C32.2113 12.5103 31.3014 12.5103 30.3914 12.697Z" fill="#00A0AF"/>
<path d="M77.5261 20.9129C81.3478 20.7262 84.4415 20.5394 86.8073 20.5394C88.9912 20.3527 90.265 20.3527 90.265 20.3527C90.265 20.3527 88.9912 20.166 86.8073 20.166C84.6235 19.9793 81.3478 19.7926 77.5261 19.7926C76.4342 19.7926 75.3423 19.7926 74.0684 19.6058C74.6143 20.166 74.9783 20.5394 75.3423 21.0996C76.2522 21.0996 76.9801 21.0996 77.5261 20.9129Z" fill="#00A0AF"/>
<path d="M21.8386 19.6058C18.0169 19.7925 14.9231 19.9792 12.5573 19.9792C10.3735 20.166 9.09961 20.3527 9.09961 20.3527C9.09961 20.3527 10.3735 20.5394 12.5573 20.5394C14.7412 20.7261 18.0169 20.9128 21.8386 20.9128C22.0206 20.9128 22.3845 20.9128 22.5665 20.9128C22.9305 20.3527 23.4764 19.9792 23.8404 19.4191C23.1125 19.6058 22.3845 19.6058 21.8386 19.6058Z" fill="#00A0AF"/>
<path d="M89.3549 27.6348C91.7207 27.4481 93.1766 27.2614 93.1766 27.2614C93.1766 27.2614 91.9027 27.0746 89.3549 26.8879C86.9891 26.7012 83.5314 26.5145 79.5277 26.3278H79.3457C79.7097 26.8879 80.0736 27.4481 80.2556 28.195C83.8953 28.0083 87.1711 27.8215 89.3549 27.6348Z" fill="#00A0AF"/>
<path d="M9.82721 27.0747C8.55331 27.0747 7.64338 27.2614 7.09743 27.2614C6.36949 27.2614 6.1875 27.2614 6.1875 27.2614C6.1875 27.2614 6.55147 27.2614 7.09743 27.2614C7.82537 27.2614 8.73529 27.4481 9.82721 27.4481C11.829 27.8216 14.5588 28.0083 17.8346 28.195C18.1985 27.6349 18.3805 27.0747 18.7445 26.5145C15.1048 26.7012 12.011 26.888 9.82721 27.0747Z" fill="#00A0AF"/>
<path d="M6.73351 33.9834C5.45962 33.9834 4.3677 34.1702 3.63976 34.1702C2.91182 34.1702 2.54785 34.3569 2.54785 34.3569C2.54785 34.3569 2.91182 34.3569 3.63976 34.5436C4.3677 34.5436 5.27763 34.7303 6.55153 34.9171C8.73535 35.1038 11.6471 35.2905 15.1048 35.4772C15.2868 34.7303 15.4688 34.1702 15.6508 33.4233C12.0111 33.4233 8.91734 33.7967 6.73351 33.9834Z" fill="#00A0AF"/>
<path d="M92.9943 34.7303C95.5421 34.5436 96.998 34.3568 96.998 34.3568C96.998 34.3568 95.5421 34.1701 92.9943 33.9834C90.4465 33.7967 86.8068 33.4232 82.2572 33.2365C82.2572 33.2365 82.2572 33.2365 82.0752 33.2365C82.2572 33.9834 82.4392 34.7303 82.8031 35.4772C86.9888 35.2905 90.6285 34.917 92.9943 34.7303Z" fill="#00A0AF"/>
<path d="M4.54992 40.8922C3.09404 41.0789 2.18411 41.0789 1.45617 41.2656C0.728228 41.2656 0.364258 41.4523 0.364258 41.4523C0.364258 41.4523 0.728228 41.4523 1.45617 41.6391C2.18411 41.6391 3.27602 41.8258 4.54992 42.0125C6.91573 42.1992 10.1915 42.5727 14.1951 42.7594C14.1951 42.0125 14.1951 41.2656 14.3771 40.5187C10.1915 40.5187 6.91573 40.7055 4.54992 40.8922Z" fill="#00A0AF"/>
<path d="M94.0867 41.8257C96.8165 41.639 98.2723 41.4523 98.2723 41.4523C98.2723 41.4523 96.8165 41.2656 94.0867 41.0789C91.5389 40.8921 88.0812 40.5187 83.8955 40.332C83.8955 41.0789 84.0775 41.8257 84.0775 42.5726C88.0812 42.1992 91.5389 42.0125 94.0867 41.8257Z" fill="#00A0AF"/>
<path d="M94.814 48.7344C97.5438 48.5477 98.9997 48.361 98.9997 48.361C98.9997 48.361 97.3618 48.1743 94.814 47.9876C92.2662 47.8008 88.4445 47.4274 83.8949 47.2407C83.8949 47.9875 83.7129 48.9212 83.7129 49.668C88.2625 49.2946 92.0842 48.9212 94.814 48.7344Z" fill="#00A0AF"/>
<path d="M4.18566 47.9876C1.63787 48.1743 0 48.361 0 48.361C0 48.361 1.63787 48.5477 4.18566 48.7344C6.73345 48.9212 10.1912 49.2946 14.3768 49.4813C14.1949 48.7344 14.1949 47.9875 14.1949 47.2407C10.0092 47.4274 6.73345 47.6141 4.18566 47.9876Z" fill="#00A0AF"/>
<path d="M6.36989 54.8962C3.82209 55.083 2.36621 55.2697 2.36621 55.2697C2.36621 55.2697 3.82209 55.4564 6.36989 55.6431C8.7357 55.8299 12.0114 56.2033 16.0151 56.39C15.8331 55.6431 15.4692 54.8962 15.2872 54.1494C11.6475 54.5228 8.55371 54.7095 6.36989 54.8962Z" fill="#00A0AF"/>
<path d="M91.9028 55.6431C94.4505 55.4564 95.9064 55.2697 95.9064 55.2697C95.9064 55.2697 94.4505 55.083 91.9028 54.8962C89.5369 54.7095 86.4432 54.5228 82.6215 54.1494C82.4395 54.8962 82.2575 55.6431 81.8936 56.39C86.0792 56.2033 89.5369 56.0166 91.9028 55.6431Z" fill="#00A0AF"/>
<path d="M80.4377 63.2987C84.6233 63.112 88.263 62.9253 90.8108 62.7385C92.0847 62.7385 92.9947 62.5518 93.7226 62.5518C94.4505 62.5518 94.8145 62.5518 94.8145 62.5518C94.8145 62.5518 94.4505 62.5518 93.7226 62.5518C92.9947 62.5518 92.0847 62.3651 90.8108 62.3651C88.263 62.1784 84.8053 61.9917 80.4377 61.8049C80.2557 61.8049 80.0737 61.8049 79.8917 61.8049C79.5278 62.3651 79.1638 63.112 78.7998 63.6722C79.3458 63.2987 79.8917 63.2987 80.4377 63.2987Z" fill="#00A0AF"/>
<path d="M17.8348 61.6183C13.6492 61.805 10.0095 61.9917 7.46168 62.1784C6.18779 62.1784 5.27786 62.3652 4.54992 62.3652C3.82198 62.3652 3.45801 62.3652 3.45801 62.3652C3.45801 62.3652 3.82198 62.3652 4.54992 62.3652C5.27786 62.3652 6.18779 62.5519 7.46168 62.5519C10.0095 62.7386 13.4672 62.9253 17.8348 63.112C18.1988 63.112 18.7448 63.112 19.2907 63.112C18.9268 62.5519 18.5628 61.9917 18.1988 61.2448C18.0168 61.6183 18.0168 61.6183 17.8348 61.6183Z" fill="#00A0AF"/>
<path d="M73.5225 70.2074C74.7964 70.2074 76.2522 70.2074 77.3441 70.0207C81.1658 69.834 84.4416 69.6473 86.6254 69.6473C88.8092 69.4606 90.0831 69.4606 90.0831 69.4606C90.0831 69.4606 88.8092 69.2738 86.6254 69.2738C84.4416 69.0871 81.1658 68.9004 77.3441 68.9004C76.6162 68.9004 75.7063 68.9004 74.7964 68.9004C74.4324 69.2738 74.0684 69.6473 73.5225 70.2074Z" fill="#00A0AF"/>
<path d="M23.1126 68.7137C22.3846 68.7137 21.4747 68.7137 20.7468 68.7137C16.9251 68.9005 13.6494 69.0872 11.4655 69.0872C9.28171 69.2739 8.00781 69.2739 8.00781 69.2739C8.00781 69.2739 9.28171 69.4606 11.4655 69.4606C13.6494 69.6474 16.9251 69.8341 20.7468 69.8341C21.8387 69.8341 23.1126 69.8341 24.3865 70.0208C24.0225 69.6474 23.6585 69.2739 23.1126 68.7137Z" fill="#00A0AF"/>
<path d="M30.2097 75.6223C28.3899 75.6223 26.57 75.809 24.9322 75.809C21.6564 75.9958 18.9266 75.9958 16.9248 76.1825C14.923 76.3692 13.8311 76.3692 13.8311 76.3692C13.8311 76.3692 14.923 76.3692 16.9248 76.5559C18.9266 76.7426 21.6564 76.7426 24.9322 76.9294C26.57 76.9294 28.3899 77.1161 30.2097 77.1161C31.4836 77.1161 32.9395 77.1161 34.3954 77.3028C33.3035 76.7427 32.3936 76.3692 31.4836 75.6223C30.9377 75.6223 30.5737 75.6223 30.2097 75.6223Z" fill="#00A0AF"/>
<path d="M68.063 77.1161C69.8828 77.1161 71.7027 76.9294 73.3405 76.9294C76.6163 76.7426 79.3461 76.7426 81.3479 76.5559C83.3497 76.3692 84.4416 76.3692 84.4416 76.3692C84.4416 76.3692 83.3497 76.3692 81.3479 76.1825C79.3461 75.9958 76.6163 75.9958 73.3405 75.809C71.7027 75.809 69.8828 75.6223 68.063 75.6223C67.699 75.6223 67.153 75.6223 66.7891 75.6223C65.8791 76.1825 64.7872 76.7427 63.6953 77.3028C65.3332 77.1161 66.7891 77.1161 68.063 77.1161Z" fill="#00A0AF"/>
<path d="M60.1066 31.2794C60.1066 28.8322 57.667 26.6846 54.8291 26.5847C54.8291 26.5847 51.8418 26.285 50.9456 26.5847C50.0494 26.8344 29.6361 33.7267 29.6361 33.7267C28.491 34.2761 27.8438 34.8755 27.8438 35.8244C27.8438 38.7711 29.5366 38.921 31.3289 38.921L53.435 38.1218C54.7295 38.0719 55.6755 37.2728 55.6755 36.0242V32.4282C55.6755 30.7301 53.3852 30.5303 53.2856 32.1285L53.1861 32.6779C53.1861 34.376 51.2443 34.376 51.2443 32.6279V31.2794C51.2443 30.2306 52.0907 29.0819 53.3354 29.1818L55.5261 29.2317C56.9202 29.3316 58.2147 29.9809 58.2147 32.0786V38.1218C58.2147 39.4204 57.1193 40.2695 55.6755 40.2195L31.2294 40.4193L31.1796 42.9165V45.6135L31.4783 44.9642L32.026 45.7134L32.3247 45.0641L32.9222 45.8133L33.2707 45.1141L33.8681 45.9132L34.2665 45.214L34.9137 46.063L35.312 45.3139L36.0091 46.1629L36.4571 45.4137L37.204 46.3127L37.7019 45.5136L38.5483 46.4626L39.0959 45.6635L39.9921 46.6624L40.6394 45.8133L41.6351 46.8621L42.3322 45.9631L43.4275 47.1119L44.2241 46.1629L45.4191 47.3616L46.3153 46.3627L47.6595 47.6113L48.7051 46.5625L50.1987 47.911L51.3937 46.8122L53.0865 48.2606L54.4308 47.1119L56.3725 48.7101L57.9657 47.4615L60.1564 49.1596L60.1066 31.2794Z" fill="#00A0AF"/>
<path d="M67.3263 26.5347C67.3263 26.5347 64.4385 26.1851 63.4926 26.5347C62.5466 26.8843 60.1069 27.7334 60.1069 27.7334C61.0031 28.7323 61.6504 29.9809 61.6504 31.2794V38.2717L65.982 38.1218C67.2765 38.0719 68.1229 37.2728 68.1229 36.0242V32.4282C68.1229 30.7301 65.8824 30.5303 65.7828 32.1285L65.5837 32.7278C65.5837 34.4259 63.5921 34.4259 63.5921 32.6779V31.3294C63.5921 30.2806 64.4883 29.1318 65.733 29.2317L67.9237 29.2817C69.3178 29.3816 70.6123 30.0308 70.6123 32.1285V38.1718C70.6123 39.4703 69.6165 40.3194 68.2225 40.2695L61.4512 40.3194L61.501 51.7067L58.0656 49.0597L56.4724 50.3083L54.5804 48.76L53.1863 49.9587L51.5433 48.5103L50.3484 49.6091L48.9045 48.2606L47.8092 49.4093L46.5147 48.1607L45.6185 49.1596L44.4236 48.0109L43.6768 48.8599V52.4559V53.9542L44.1249 53.3549L44.5729 54.154L45.021 53.5547L45.4691 54.4037L45.967 53.8044L46.4649 54.7034L46.9628 54.0541L47.5105 55.0031L48.0581 54.3538L48.6556 55.3527L49.2531 54.7034L49.9003 55.7522L50.5476 55.053L51.2446 56.1518L51.9416 55.4526L52.6885 56.6013L53.4851 55.8521L54.3315 57.0508L55.2277 56.3016L56.1737 57.6002L57.1694 56.8011L58.215 58.1496L59.3103 57.3005L60.4555 58.7489L61.7002 57.8999L62.9947 59.4981L64.3887 58.5991L65.8824 60.2972L67.4756 59.3483L69.1684 61.1962L70.8612 60.2473L72.7034 62.295V55.0031V31.2794C72.554 28.8322 70.1642 26.6845 67.3263 26.5347Z" fill="#00A0AF"/>
</g>
<defs>
<clipPath id="clip0">
<rect width="99" height="90" fill="white"/>
</clipPath>
</defs>
</svg>
