<svg width="56" height="56" viewBox="0 0 56 56" fill="none" xmlns="http://www.w3.org/2000/svg">
<circle cx="28" cy="28" r="27.5" stroke="#29ABB8"/>
<path fill-rule="evenodd" clip-rule="evenodd" d="M32.9459 21.1925L28 13L23.0541 21.1925L13.7341 23.3647L19.9973 30.6002L19.1832 40.1353L28 36.4145L36.8168 40.1353L36.0026 30.6002L42.2658 23.3647L32.9459 21.1925ZM29.3189 26.1847L28 24L26.6811 26.1847L24.1958 26.7639L25.866 28.6934L25.6489 31.2361L28 30.2439L30.3511 31.2361L30.134 28.6934L31.8042 26.7639L29.3189 26.1847Z" fill="#00A0AF"/>
</svg>
